module awesomeProject4

go 1.13

require (
	github.com/alecthomas/template v0.0.0-20190718012654-fb15b899a751
	github.com/astaxie/beego v1.12.0
	github.com/dgrijalva/jwt-go v3.2.0+incompatible
	github.com/gin-gonic/gin v1.4.0
	github.com/go-ini/ini v1.48.0
	github.com/jinzhu/gorm v1.9.11
	github.com/swaggo/gin-swagger v1.2.0
	github.com/swaggo/swag v1.6.3
	github.com/unknwon/com v1.0.1
	gopkg.in/ini.v1 v1.48.0 // indirect
)
